1000
200
50
588 124
327 157
498 168
0 113
270 123
322 146
284 123
50 100
12 57
428 158
303 141
948 2
607 118
237 65
374 79
242 89
746 54
275 121
71 70
706 115
158 183
351 107
325 141
617 152
222 7
390 65
589 176
52 114
444 43
120 15
865 3
912 88
186 73
724 149
672 177
482 44
266 127
19 185
187 158
487 101
255 57
528 42
105 62
238 85
425 183
95 117
813 115
337 188
781 21
442 132
